C:\Users\saisandeeprm\Desktop\JPMC POC\JPMCPOC\bundle\src\main\java\com\adobe\cq\package-info.java
C:\Users\saisandeeprm\Desktop\JPMC POC\JPMCPOC\bundle\src\main\java\com\adobe\cq\impl\filters\LoggingFilter.java
C:\Users\saisandeeprm\Desktop\JPMC POC\JPMCPOC\bundle\src\main\java\com\adobe\cq\impl\HelloServiceImpl.java
C:\Users\saisandeeprm\Desktop\JPMC POC\JPMCPOC\bundle\src\main\java\virtusa\poc\jpmc\ContractRoomConnectorService.java
C:\Users\saisandeeprm\Desktop\JPMC POC\JPMCPOC\bundle\src\main\java\com\adobe\cq\HelloService.java
C:\Users\saisandeeprm\Desktop\JPMC POC\JPMCPOC\bundle\src\main\java\virtusa\poc\jpmc\ExportContentFragment.java
C:\Users\saisandeeprm\Desktop\JPMC POC\JPMCPOC\bundle\src\main\java\virtusa\poc\jpmc\ContractRoomConnectorServiceImpl.java
C:\Users\saisandeeprm\Desktop\JPMC POC\JPMCPOC\bundle\src\main\java\virtusa\poc\jpmc\HtmlExporter.java
